# Gene Network 2.0 / Department of Genetics, University Medical Center Groningen / http://www.genenetwork.nl
#
# Gene list
# Downloaded 2020-09-17
#
# Number of genes: 170
#
gene_id	gene_name	cluster
ENSG00000030582	GRN	Cluster 1
ENSG00000047457	CP	Cluster 1
ENSG00000049860	HEXB	Cluster 1
ENSG00000054983	GALC	Cluster 1
ENSG00000064601	CTSA	Cluster 1
ENSG00000080815	PSEN1	Cluster 1
ENSG00000087086	FTL	Cluster 1
ENSG00000101347	SAMHD1	Cluster 1
ENSG00000102805	CLN5	Cluster 1
ENSG00000103707	MTFMT	Cluster 1
ENSG00000104763	ASAH1	Cluster 1
ENSG00000105726	ATP13A1	Cluster 1
ENSG00000110195	FOLR1	Cluster 1
ENSG00000110619	CARS	Cluster 1
ENSG00000112425	EPM2A	Cluster 1
ENSG00000116096	SPR	Cluster 1
ENSG00000119655	NPC2	Cluster 1
ENSG00000124788	ATXN1	Cluster 1
ENSG00000128973	CLN6	Cluster 1
ENSG00000129250	KIF1C	Cluster 1
ENSG00000131238	PPT1	Cluster 1
ENSG00000131979	GCH1	Cluster 1
ENSG00000134905	CARS2	Cluster 1
ENSG00000135297	MTO1	Cluster 1
ENSG00000135929	CYP27A1	Cluster 1
ENSG00000136827	TOR1A	Cluster 1
ENSG00000138760	SCARB2	Cluster 1
ENSG00000139174	PRICKLE1	Cluster 1
ENSG00000140905	GCSH	Cluster 1
ENSG00000141458	NPC1	Cluster 1
ENSG00000142192	APP	Cluster 1
ENSG00000142632	ARHGEF19	Cluster 1
ENSG00000145335	SNCA	Cluster 1
ENSG00000149311	ATM	Cluster 1
ENSG00000153029	MR1	Cluster 1
ENSG00000160213	CSTB	Cluster 1
ENSG00000165060	FXN	Cluster 1
ENSG00000166340	TPP1	Cluster 1
ENSG00000170266	GLB1	Cluster 1
ENSG00000171867	PRNP	Cluster 1
ENSG00000173085	COQ2	Cluster 1
ENSG00000175198	PCCA	Cluster 1
ENSG00000177628	GBA	Cluster 1
ENSG00000178445	GLDC	Cluster 1
ENSG00000182372	CLN8	Cluster 1
ENSG00000188603	CLN3	Cluster 1
ENSG00000197746	PSAP	Cluster 1
ENSG00000243335	KCTD7	Cluster 1
ENSG00000272333	KMT2B	Cluster 1
ENSG00000008086	CDKL5	Cluster 2
ENSG00000075239	ACAT1	Cluster 2
ENSG00000088682	COQ9	Cluster 2
ENSG00000103089	FA2H	Cluster 2
ENSG00000104889	RNASEH2A	Cluster 2
ENSG00000105607	GCDH	Cluster 2
ENSG00000108433	GOSR2	Cluster 2
ENSG00000110435	PDHX	Cluster 2
ENSG00000114054	PCCB	Cluster 2
ENSG00000123191	ATP7B	Cluster 2
ENSG00000125779	PANK2	Cluster 2
ENSG00000126953	TIMM8A	Cluster 2
ENSG00000131828	PDHA1	Cluster 2
ENSG00000131943	C19orf12	Cluster 2
ENSG00000136143	SUCLA2	Cluster 2
ENSG00000140521	POLG	Cluster 2
ENSG00000145191	EIF2B5	Cluster 2
ENSG00000145982	FARS2	Cluster 2
ENSG00000146085	MUT	Cluster 2
ENSG00000147133	TAF1	Cluster 2
ENSG00000150787	PTS	Cluster 2
ENSG00000162065	TBC1D24	Cluster 2
ENSG00000163050	ADCK3	Cluster 2
ENSG00000165195	PIGA	Cluster 2
ENSG00000165240	ATP7A	Cluster 2
ENSG00000165704	HPRT1	Cluster 2
ENSG00000169057	MECP2	Cluster 2
ENSG00000169432	SCN9A	Cluster 2
ENSG00000177189	RPS6KA3	Cluster 2
ENSG00000180228	PRKRA	Cluster 2
ENSG00000183690	EFHC2	Cluster 2
ENSG00000196660	SLC30A10	Cluster 2
ENSG00000196998	WDR45	Cluster 2
ENSG00000204435	CSNK2B	Cluster 2
ENSG00000213614	HEXA	Cluster 2
ENSG00000066427	ATXN3	Cluster 3
ENSG00000100379	KCTD17	Cluster 3
ENSG00000104833	TUBB4A	Cluster 3
ENSG00000105409	ATP1A3	Cluster 3
ENSG00000105639	JAK3	Cluster 3
ENSG00000109738	GLRB	Cluster 3
ENSG00000111249	CUX2	Cluster 3
ENSG00000114062	UBE3A	Cluster 3
ENSG00000114859	CLCN2	Cluster 3
ENSG00000115827	DCAF17	Cluster 3
ENSG00000117394	SLC2A1	Cluster 3
ENSG00000127990	SGCE	Cluster 3
ENSG00000132437	DDC	Cluster 3
ENSG00000135917	SLC19A3	Cluster 3
ENSG00000136104	RNASEH2B	Cluster 3
ENSG00000136352	NKX2-1	Cluster 3
ENSG00000136854	STXBP1	Cluster 3
ENSG00000141404	GNAL	Cluster 3
ENSG00000142319	SLC6A3	Cluster 3
ENSG00000155980	KIF5A	Cluster 3
ENSG00000156170	NDUFAF6	Cluster 3
ENSG00000163393	SLC22A15	Cluster 3
ENSG00000163635	ATXN7	Cluster 3
ENSG00000172922	RNASEH2C	Cluster 3
ENSG00000173175	ADCY5	Cluster 3
ENSG00000175344	CHRNA7	Cluster 3
ENSG00000177570	SAMD12	Cluster 3
ENSG00000180176	TH	Cluster 3
ENSG00000186868	MAPT	Cluster 3
ENSG00000196876	SCN8A	Cluster 3
ENSG00000197283	SYNGAP1	Cluster 3
ENSG00000204386	NEU1	Cluster 3
ENSG00000204842	ATXN2	Cluster 3
ENSG00000213689	TREX1	Cluster 3
ENSG00000022355	GABRA1	Cluster 4
ENSG00000073464	CLCN4	Cluster 4
ENSG00000096093	EFHC1	Cluster 4
ENSG00000105711	SCN1B	Cluster 4
ENSG00000109756	RAPGEF2	Cluster 4
ENSG00000111181	SLC6A12	Cluster 4
ENSG00000113327	GABRG2	Cluster 4
ENSG00000126583	PRKCG	Cluster 4
ENSG00000129159	KCNC1	Cluster 4
ENSG00000131095	GFAP	Cluster 4
ENSG00000134343	ANO3	Cluster 4
ENSG00000136531	SCN2A	Cluster 4
ENSG00000141837	CACNA1A	Cluster 4
ENSG00000144285	SCN1A	Cluster 4
ENSG00000157103	SLC6A1	Cluster 4
ENSG00000159248	GJD2	Cluster 4
ENSG00000163536	SERPINI1	Cluster 4
ENSG00000164073	MFSD8	Cluster 4
ENSG00000165194	PCDH19	Cluster 4
ENSG00000165970	SLC6A5	Cluster 4
ENSG00000171385	KCND3	Cluster 4
ENSG00000182389	CACNB4	Cluster 4
ENSG00000184144	CNTN2	Cluster 4
ENSG00000187566	NHLRC1	Cluster 4
ENSG00000187730	GABRD	Cluster 4
ENSG00000214960	ISPD	Cluster 4
ENSG00000082212	ME2	Cluster 5
ENSG00000111676	ATN1	Cluster 5
ENSG00000112592	TBP	Cluster 5
ENSG00000131931	THAP1	Cluster 5
ENSG00000145020	AMT	Cluster 5
ENSG00000145888	GLRA1	Cluster 5
ENSG00000151552	QDPR	Cluster 5
ENSG00000173575	CHD2	Cluster 5
ENSG00000197386	HTT	Cluster 5
ENSG00000198695	MT-ND6	Cluster 5
ENSG00000198840	MT-ND3	Cluster 5
ENSG00000198886	MT-ND4	Cluster 5
ENSG00000198888	MT-ND1	Cluster 5
ENSG00000198899	MT-ATP6	Cluster 5
ENSG00000204256	BRD2	Cluster 5
ENSG00000210176	MT-TH	Cluster 5
ENSG00000230223	ATXN8OS	Cluster 5
ENSG00000101152	DNAJC5	Cluster 6
ENSG00000184381	PLA2G6	Cluster 6
ENSG00000209082	MT-TL1	Cluster 6
ENSG00000210049	MT-TF	Cluster 6
ENSG00000210151	MT-TS1	Cluster 6
ENSG00000210156	MT-TK	Cluster 6
ENSG00000210196	MT-TP	Cluster 6
ENSG00000213619	NDUFS3	Cluster 6
ENSG00000223802	CERS1	Cluster 6