# Gene Network 2.0 / Department of Genetics, University Medical Center Groningen / http://www.genenetwork.nl
#
# Gene list
# Downloaded 2020-09-15
#
# Number of genes: 205
#
gene_id	gene_name	cluster
ENSG00000020922	MRE11A	Cluster 1
ENSG00000036473	OTC	Cluster 1
ENSG00000046651	OFD1	Cluster 1
ENSG00000087299	L2HGDH	Cluster 1
ENSG00000091140	DLD	Cluster 1
ENSG00000100749	VRK1	Cluster 1
ENSG00000104133	SPG11	Cluster 1
ENSG00000107290	SETX	Cluster 1
ENSG00000114859	CLCN2	Cluster 1
ENSG00000130347	RTN4IP1	Cluster 1
ENSG00000131269	ABCB7	Cluster 1
ENSG00000135454	B4GALNT1	Cluster 1
ENSG00000138095	LRPPRC	Cluster 1
ENSG00000141385	AFG3L2	Cluster 1
ENSG00000143669	LYST	Cluster 1
ENSG00000145016	RUBCN	Cluster 1
ENSG00000145191	EIF2B5	Cluster 1
ENSG00000147852	VLDLR	Cluster 1
ENSG00000150995	ITPR1	Cluster 1
ENSG00000151835	SACS	Cluster 1
ENSG00000158290	CUL4B	Cluster 1
ENSG00000163961	RNF168	Cluster 1
ENSG00000168538	TRAPPC11	Cluster 1
ENSG00000169359	SLC33A1	Cluster 1
ENSG00000172817	CYP7B1	Cluster 1
ENSG00000173898	SPTBN2	Cluster 1
ENSG00000180104	EXOC3	Cluster 1
ENSG00000182512	GLRX5	Cluster 1
ENSG00000198707	CEP290	Cluster 1
ENSG00000198836	OPA1	Cluster 1
ENSG00000049860	HEXB	Cluster 2
ENSG00000054983	GALC	Cluster 2
ENSG00000088035	ALG6	Cluster 2
ENSG00000100997	ABHD12	Cluster 2
ENSG00000102805	CLN5	Cluster 2
ENSG00000103266	STUB1	Cluster 2
ENSG00000105227	PRX	Cluster 2
ENSG00000107537	PHYH	Cluster 2
ENSG00000110195	FOLR1	Cluster 2
ENSG00000112357	PEX7	Cluster 2
ENSG00000113643	RARS	Cluster 2
ENSG00000116096	SPR	Cluster 2
ENSG00000119655	NPC2	Cluster 2
ENSG00000119899	SLC17A5	Cluster 2
ENSG00000120725	SIL1	Cluster 2
ENSG00000128039	SRD5A3	Cluster 2
ENSG00000128973	CLN6	Cluster 2
ENSG00000133835	HSD17B4	Cluster 2
ENSG00000135317	SNX14	Cluster 2
ENSG00000135917	SLC19A3	Cluster 2
ENSG00000138760	SCARB2	Cluster 2
ENSG00000141458	NPC1	Cluster 2
ENSG00000147100	SLC16A2	Cluster 2
ENSG00000148090	AUH	Cluster 2
ENSG00000152422	XRCC4	Cluster 2
ENSG00000164182	NDUFAF2	Cluster 2
ENSG00000164209	SLC25A46	Cluster 2
ENSG00000170266	GLB1	Cluster 2
ENSG00000243335	KCTD7	Cluster 2
ENSG00000032444	PNPLA6	Cluster 3
ENSG00000060762	MPC1	Cluster 3
ENSG00000073578	SDHA	Cluster 3
ENSG00000079482	OPHN1	Cluster 3
ENSG00000103707	MTFMT	Cluster 3
ENSG00000110074	FOXRED1	Cluster 3
ENSG00000110435	PDHX	Cluster 3
ENSG00000110921	MVK	Cluster 3
ENSG00000111361	EIF2B1	Cluster 3
ENSG00000115286	NDUFS7	Cluster 3
ENSG00000121680	PEX16	Cluster 3
ENSG00000125741	OPA3	Cluster 3
ENSG00000135541	AHI1	Cluster 3
ENSG00000137411	VARS2	Cluster 3
ENSG00000139515	PDX1	Cluster 3
ENSG00000139531	SUOX	Cluster 3
ENSG00000143158	MPC2	Cluster 3
ENSG00000147224	PRPS1	Cluster 3
ENSG00000148290	SURF1	Cluster 3
ENSG00000163050	ADCK3	Cluster 3
ENSG00000164258	NDUFS4	Cluster 3
ENSG00000165060	FXN	Cluster 3
ENSG00000178538	CA8	Cluster 3
ENSG00000187049	TMEM216	Cluster 3
ENSG00000198805	PNP	Cluster 3
ENSG00000205981	DNAJC19	Cluster 3
ENSG00000213614	HEXA	Cluster 3
ENSG00000006695	COX10	Cluster 4
ENSG00000011295	TTC19	Cluster 4
ENSG00000014919	COX15	Cluster 4
ENSG00000072756	TRNT1	Cluster 4
ENSG00000095485	CWF19L1	Cluster 4
ENSG00000102743	SLC25A15	Cluster 4
ENSG00000107815	C10orf2	Cluster 4
ENSG00000107951	MTPAP	Cluster 4
ENSG00000108433	GOSR2	Cluster 4
ENSG00000112425	EPM2A	Cluster 4
ENSG00000119718	EIF2B2	Cluster 4
ENSG00000119977	TCTN3	Cluster 4
ENSG00000124587	PEX6	Cluster 4
ENSG00000130826	DKC1	Cluster 4
ENSG00000131018	SYNE1	Cluster 4
ENSG00000137074	APTX	Cluster 4
ENSG00000140650	PMM2	Cluster 4
ENSG00000141378	PTRH2	Cluster 4
ENSG00000148606	POLR3A	Cluster 4
ENSG00000167371	PRRT2	Cluster 4
ENSG00000167716	WDR81	Cluster 4
ENSG00000171453	POLR1C	Cluster 4
ENSG00000174358	SLC6A19	Cluster 4
ENSG00000204852	TCTN1	Cluster 4
ENSG00000205336	ADGRG1	Cluster 4
ENSG00000261609	GAN	Cluster 4
ENSG00000011275	RNF216	Cluster 5
ENSG00000014216	CAPN1	Cluster 5
ENSG00000030582	GRN	Cluster 5
ENSG00000060069	CTDP1	Cluster 5
ENSG00000064601	CTSA	Cluster 5
ENSG00000067836	ROGDI	Cluster 5
ENSG00000072121	ZFYVE26	Cluster 5
ENSG00000083123	BCKDHB	Cluster 5
ENSG00000090487	SPG21	Cluster 5
ENSG00000100299	ARSA	Cluster 5
ENSG00000101986	ABCD1	Cluster 5
ENSG00000104774	MAN2B1	Cluster 5
ENSG00000109501	WFS1	Cluster 5
ENSG00000129250	KIF1C	Cluster 5
ENSG00000135929	CYP27A1	Cluster 5
ENSG00000159363	ATP13A2	Cluster 5
ENSG00000160213	CSTB	Cluster 5
ENSG00000160746	ANO10	Cluster 5
ENSG00000166340	TPP1	Cluster 5
ENSG00000169814	BTD	Cluster 5
ENSG00000177628	GBA	Cluster 5
ENSG00000185803	SLC52A2	Cluster 5
ENSG00000197746	PSAP	Cluster 5
ENSG00000204386	NEU1	Cluster 5
ENSG00000213619	NDUFS3	Cluster 5
ENSG00000013503	POLR3B	Cluster 6
ENSG00000039650	PNKP	Cluster 6
ENSG00000070610	GBA2	Cluster 6
ENSG00000070785	EIF2B3	Cluster 6
ENSG00000074582	BCS1L	Cluster 6
ENSG00000094914	AAAS	Cluster 6
ENSG00000110717	NDUFS8	Cluster 6
ENSG00000115204	MPV17	Cluster 6
ENSG00000115211	EIF2B4	Cluster 6
ENSG00000117593	DARS2	Cluster 6
ENSG00000124608	AARS2	Cluster 6
ENSG00000125459	MSTO1	Cluster 6
ENSG00000130414	NDUFA10	Cluster 6
ENSG00000132763	MMACHC	Cluster 6
ENSG00000140521	POLG	Cluster 6
ENSG00000160072	ATAD3B	Cluster 6
ENSG00000168658	VWA3B	Cluster 6
ENSG00000178971	CTC1	Cluster 6
ENSG00000184381	PLA2G6	Cluster 6
ENSG00000187566	NHLRC1	Cluster 6
ENSG00000197912	SPG7	Cluster 6
ENSG00000198130	HIBCH	Cluster 6
ENSG00000205084	TMEM231	Cluster 6
ENSG00000210196	MT-TP	Cluster 6
ENSG00000242802	AP5Z1	Cluster 6
ENSG00000011143	MKS1	Cluster 7
ENSG00000047457	CP	Cluster 7
ENSG00000048342	CC2D2A	Cluster 7
ENSG00000048392	RRM2B	Cluster 7
ENSG00000103494	RPGRIP1L	Cluster 7
ENSG00000117394	SLC2A1	Cluster 7
ENSG00000123191	ATP7B	Cluster 7
ENSG00000125779	PANK2	Cluster 7
ENSG00000137561	TTPA	Cluster 7
ENSG00000144061	NPHP1	Cluster 7
ENSG00000149311	ATM	Cluster 7
ENSG00000151413	NUBPL	Cluster 7
ENSG00000156170	NDUFAF6	Cluster 7
ENSG00000157911	PEX10	Cluster 7
ENSG00000164073	MFSD8	Cluster 7
ENSG00000164751	PEX2	Cluster 7
ENSG00000164953	TMEM67	Cluster 7
ENSG00000168778	TCTN2	Cluster 7
ENSG00000169379	ARL13B	Cluster 7
ENSG00000175595	ERCC4	Cluster 7
ENSG00000177082	WDR73	Cluster 7
ENSG00000180644	PRF1	Cluster 7
ENSG00000197603	C5orf42	Cluster 7
ENSG00000247626	MARS2	Cluster 7
ENSG00000004848	ARX	Cluster 8
ENSG00000085788	DDHD2	Cluster 8
ENSG00000100427	MLC1	Cluster 8
ENSG00000103089	FA2H	Cluster 8
ENSG00000105695	MAG	Cluster 8
ENSG00000112294	ALDH5A1	Cluster 8
ENSG00000123560	PLP1	Cluster 8
ENSG00000126583	PRKCG	Cluster 8
ENSG00000130294	KIF1A	Cluster 8
ENSG00000133104	SPG20	Cluster 8
ENSG00000148826	NKX6-2	Cluster 8
ENSG00000152208	GRID2	Cluster 8
ENSG00000154277	UCHL1	Cluster 8
ENSG00000165478	HEPACAM	Cluster 8
ENSG00000169057	MECP2	Cluster 8
ENSG00000174080	CTSF	Cluster 8
ENSG00000177807	KCNJ10	Cluster 8
ENSG00000189056	RELN	Cluster 8
ENSG00000198835	GJC2	Cluster 8